[{
  "name": "William Burstein",
  "periods": [
    {
      "name": "Concert Band",
      "instructor": "Todd Millen"
    },
    {
      "name": "English 5 AP"
    },
    {
      "name": "Chemistry Honors",
      "instructor": "Alex Kraus"
    },
    {
      "name": "C2 Period"
    },
    {
      "name": "US History"
    },
    {
      "name": "Free Period"
    },
    {
      "name": "AP Computer Science",
      "instructor": "Mike Ligon"
    },
    {
      "name": "F2 Period"
    },
    {
      "name": "French 4 Honors",
      "instructor": "Dr. Jonathan Briggs"
    },
    {
      "name": "G2 Period"
    },
    {
      "name": "Precalculus Honors",
      "instructor": "Sandra Goss"
    }
  ]
},

{
  "name": "William Burstein",
  "periods": [
    {
      "name": "A Period",
    },
    {
      "name": "B Period"
    },
    {
      "name": "C1 Period",
    },
    {
      "name": "C2 Period"
    },
    {
      "name": "D Period"
    },
    {
      "name": "E Period"
    },
    {
      "name": "F1 Period"
    },
    {
      "name": "F2 Period"
    },
    {
      "name": "G1 Period",
    },
    {
      "name": "G2 Period"
    },
    {
      "name": "H Period",
    }
  ]
}
]